<?xml version="1.0" encoding="UTF-8" standalone="no"?>
<!-- Created with Inkscape (http://www.inkscape.org/) -->

<svg
   xmlns:dc="http://purl.org/dc/elements/1.1/"
   xmlns:cc="http://creativecommons.org/ns#"
   xmlns:rdf="http://www.w3.org/1999/02/22-rdf-syntax-ns#"
   xmlns:svg="http://www.w3.org/2000/svg"
   xmlns="http://www.w3.org/2000/svg"
   xmlns:sodipodi="http://sodipodi.sourceforge.net/DTD/sodipodi-0.dtd"
   xmlns:inkscape="http://www.inkscape.org/namespaces/inkscape"
   id="svg3986"
   version="1.1"
   inkscape:version="0.48.4 r9939"
   width="500"
   height="500.2952"
   sodipodi:docname="rss.svg"
   inkscape:export-filename="/media/niccolo/Tokyo/Creating Culture/symbols/rss.png"
   inkscape:export-xdpi="90"
   inkscape:export-ydpi="90">
  <metadata
     id="metadata3992">
    <rdf:RDF>
      <cc:Work
         rdf:about="">
        <dc:format>image/svg+xml</dc:format>
        <dc:type
           rdf:resource="http://purl.org/dc/dcmitype/StillImage" />
        <dc:title></dc:title>
      </cc:Work>
    </rdf:RDF>
  </metadata>
  <defs
     id="defs3990" />
  <sodipodi:namedview
     pagecolor="#ffffff"
     bordercolor="#666666"
     borderopacity="1"
     objecttolerance="10"
     gridtolerance="10"
     guidetolerance="10"
     inkscape:pageopacity="0"
     inkscape:pageshadow="2"
     inkscape:window-width="1920"
     inkscape:window-height="1026"
     id="namedview3988"
     showgrid="false"
     fit-margin-top="0"
     fit-margin-left="0"
     fit-margin-right="0"
     fit-margin-bottom="0"
     inkscape:zoom="0.76872964"
     inkscape:cx="187.60158"
     inkscape:cy="156.86453"
     inkscape:window-x="0"
     inkscape:window-y="27"
     inkscape:window-maximized="1"
     inkscape:current-layer="g3996" />
  <g
     id="g3996"
     transform="translate(-19.344214,205.53567)">
    <path
       style="fill:#f0efeb"
       d="m 49.534373,43.119913 0,-211.997323 223.046047,0 223.04603,0 0,211.997323 0,211.997317 -223.04603,0 -223.046047,0 0,-211.997317 z"
       id="path4000"
       inkscape:connector-curvature="0" />
    <path
       style="fill:#ff9421;fill-opacity:1"
       d="M 45.296236,293.54931 C 30.715462,290.0137 16.863885,275.6449 19.721377,259.91365 c -0.03322,-147.86814 -0.06643,-295.7363 -0.09965,-443.60445 8.800764,-19.2127 29.407318,-23.13283 48.730166,-21.14514 135.155447,-0.6339 270.336497,-1.30413 405.484427,0.2693 16.76447,-1.04195 42.6214,1.44319 44.58581,21.84953 0.30736,151.158275 0.61472,302.31655 0.92208,453.47483 -6.46017,12.7152 -17.88783,26.70014 -33.61787,23.55271 -146.8071,-0.13627 -293.64044,1.22684 -440.430108,-0.76112 z M 151.07444,239.95027 c 32.79769,-10.89357 45.97739,-55.14667 25.66882,-82.56847 -20.17966,-32.04399 -73.13457,-31.19229 -91.459823,2.27409 -19.175114,29.33181 -2.700152,74.524 32.432283,82.06003 10.94714,2.92886 22.77066,2.2355 33.35872,-1.76565 z M 341.49995,228.38543 C 337.61914,127.58216 268.74394,34.113354 174.99124,-2.1519073 144.20425,-15.301127 110.74075,-19.796417 77.517205,-20.624304 c 0.797669,27.6879488 -2.003996,55.94819 2.226749,83.183789 42.784666,3.082836 85.419406,17.533279 117.578246,46.699235 38.29098,32.34239 59.71749,81.21964 62.25616,130.83773 14.388,6.31856 35.0864,1.85905 52.17518,2.90046 10.10048,-0.12007 20.20096,-0.24019 30.30144,-0.36029 -0.18501,-4.7504 -0.37001,-9.50079 -0.55503,-14.25119 z m 128.16384,12.91514 c 2.09818,-148.785379 -91.8056,-292.05302 -226.44676,-353.90205 -51.4094,-23.86768 -108.0865,-36.44243 -164.809126,-34.88832 0,27.31353 0,54.627049 0,81.940575 55.650346,3.43259 111.746356,15.911682 159.355366,46.096102 79.63097,48.312329 136.15295,133.245363 146.63864,226.199363 1.59962,12.22232 2.53284,24.51709 3.744,36.78108 26.47572,-0.34694 53.03719,0.92873 79.44036,-1.15769 l 2.07752,-1.06906 z"
       id="path3998"
       inkscape:connector-curvature="0" />
  </g>
</svg>
